…
Single observations (cell, year) with POSITIVE Net-Migration = 18,1 mln

``` r
df_netMgr_2000_2019_annual_long[df_netMgr_2000_2019_annual_long$netmgr > 0, ]
```

    ## # A tibble: 18,170,753 × 4
    ##      lon   lat year      netmgr
    ##    <dbl> <dbl> <chr>      <dbl>
    ##  1 -74.6  83.1 2003  0.0000302 
    ##  2 -74.6  83.1 2005  0.00000336
    ##  3 -74.6  83.1 2006  0.0000148 
    ##  4 -74.6  83.1 2011  0.00000146
    ##  5 -74.6  83.1 2014  0.0000202 
    ##  6 -74.6  83.1 2016  0.0000228 
    ##  7 -74.6  83.1 2018  0.000183  
    ##  8 -74.5  83.1 2003  0.0000367 
    ##  9 -74.5  83.1 2005  0.0000260 
    ## 10 -74.5  83.1 2006  0.0000341 
    ## # ℹ 18,170,743 more rows

Single observations (cell, year) with NEGATIVE Net-Migration = 19,5 mln

``` r
df_netMgr_2000_2019_annual_long[df_netMgr_2000_2019_annual_long$netmgr < 0, ]
```

    ## # A tibble: 19,505,278 × 4
    ##      lon   lat year       netmgr
    ##    <dbl> <dbl> <chr>       <dbl>
    ##  1 -74.6  83.1 2000  -0.0000322 
    ##  2 -74.6  83.1 2001  -0.0000570 
    ##  3 -74.6  83.1 2002  -0.0000180 
    ##  4 -74.6  83.1 2004  -0.00000878
    ##  5 -74.6  83.1 2007  -0.0000323 
    ##  6 -74.6  83.1 2008  -0.00000540
    ##  7 -74.6  83.1 2009  -0.0000146 
    ##  8 -74.6  83.1 2010  -0.00000341
    ##  9 -74.6  83.1 2012  -0.0000158 
    ## 10 -74.6  83.1 2013  -0.0000185 
    ## # ℹ 19,505,268 more rows
…
